Sequence SystemC/sequenceDetector.vcd
$date
     Mar 11, 2024       00:27:33
$end

$version
 SystemC 2.3.1-Accellera --- Mar  5 2024 15:11:05
$end

$timescale
     1 ps
$end

$scope module SystemC $end
$var wire    1  aaaaa  a       $end
$var wire    1  aaaab  reset       $end
$var wire    1  aaaac  clock       $end
$var wire    1  aaaad  w       $end
$upscope $end
$enddefinitions  $end

$comment
All initial values are dumped below at time 0 sec = 0 timescale units.
$end

$dumpvars
xaaaaa
xaaaab
xaaaac
0aaaad
$end

#5000
0aaaac

#10000
1aaaac

#15000
0aaaac

#20000
0aaaab
1aaaac

#25000
0aaaac

#30000
1aaaab
1aaaac

#35000
0aaaac

#40000
0aaaab
1aaaac

#45000
0aaaac

#50000
1aaaac

#55000
0aaaac

#60000
1aaaaa
1aaaac

#65000
0aaaac

#70000
0aaaaa
1aaaac

#75000
0aaaac

#80000
1aaaaa
1aaaac

#85000
0aaaac

#90000
1aaaac

#95000
0aaaac

#100000
1aaaac

#105000
0aaaac

#110000
0aaaaa
1aaaac

#115000
0aaaac

#120000
1aaaaa
1aaaac

#125000
0aaaac

#130000
1aaaac

#135000
0aaaac

#140000
0aaaaa
1aaaac

#145000
0aaaac

#150000
1aaaac
1aaaad

#155000
0aaaac

#160000
1aaaac
0aaaad

#165000
0aaaac

#170000
1aaaac

#175000
0aaaac

#180000
1aaaac

#185000
0aaaac

#190000
1aaaac

#195000
0aaaac

#200000
1aaaaa
1aaaac

#205000
0aaaac

#210000
0aaaaa
1aaaac

#215000
0aaaac

#220000
1aaaaa
1aaaac

#225000
0aaaac

#230000
1aaaac

#235000
0aaaac

#240000
1aaaac

#245000
0aaaac

#250000
0aaaaa
1aaaac

#255000
0aaaac

#260000
1aaaaa
1aaaac

#265000
0aaaac

#270000
1aaaac

#275000
0aaaac

#280000
0aaaaa
1aaaac

#285000
0aaaac

#290000
1aaaac
1aaaad

#295000
0aaaac

#300000
1aaaac
0aaaad

#305000
0aaaac

#310000
1aaaac

#315000
0aaaac

#320000
1aaaac

#325000
0aaaac

#330000
1aaaac

#335000
0aaaac

#340000
1aaaaa
1aaaac

#345000
0aaaac

#350000
0aaaaa
1aaaac

#355000
0aaaac

#360000
1aaaaa
1aaaac

#365000
0aaaac

#370000
1aaaac

#375000
0aaaac

#380000
1aaaac

#385000
0aaaac

#390000
0aaaaa
1aaaac

#395000
0aaaac

#400000
1aaaaa
1aaaac

#405000
0aaaac

#410000
1aaaac

#415000
0aaaac

#420000
0aaaaa
1aaaac

#425000
0aaaac

#430000
1aaaac
1aaaad

#435000
0aaaac

#440000
1aaaac
0aaaad

#445000
0aaaac

#450000
1aaaac

#455000
0aaaac

#460000
1aaaac

#465000
0aaaac

#470000
1aaaac

#475000
0aaaac

#480000
1aaaaa
1aaaac

#485000
0aaaac

#490000
0aaaaa
1aaaac

#495000
0aaaac

#500000
1aaaaa
1aaaac

#505000
0aaaac

#510000
1aaaac

#515000
0aaaac

#520000
1aaaac

#525000
0aaaac

#530000
0aaaaa
1aaaac

#535000
0aaaac

#540000
1aaaaa
1aaaac

#545000
0aaaac

#550000
1aaaac

#555000
0aaaac

#560000
0aaaaa
1aaaac

#565000
0aaaac

#570000
1aaaac
1aaaad

#575000
0aaaac

#580000
1aaaac
0aaaad

#585000
0aaaac

#590000
1aaaac

#595000
0aaaac

#600000
1aaaac

#605000
0aaaac

#610000
1aaaac

#615000
0aaaac

#620000
1aaaaa
1aaaac

#625000
0aaaac

#630000
0aaaaa
1aaaac

#635000
0aaaac

#640000
1aaaaa
1aaaac

#645000
0aaaac

#650000
1aaaac

#655000
0aaaac

#660000
1aaaac

#665000
0aaaac

#670000
0aaaaa
1aaaac

#675000
0aaaac

#680000
1aaaaa
1aaaac

#685000
0aaaac

#690000
1aaaac

#695000
0aaaac

#700000
0aaaaa
1aaaac

#705000
0aaaac

#710000
1aaaac
1aaaad

#715000
0aaaac

#720000
1aaaac
0aaaad

#725000
0aaaac

#730000
1aaaac

#735000
0aaaac

#740000
1aaaac

#745000
0aaaac

#750000
1aaaac

#755000
0aaaac

#760000
1aaaaa
1aaaac

#765000
0aaaac

#770000
0aaaaa
1aaaac

#775000
0aaaac

#780000
1aaaaa
1aaaac

#785000
0aaaac

#790000
1aaaac

#795000
0aaaac

#800000
1aaaac

#805000
0aaaac

#810000
0aaaaa
1aaaac

#815000
0aaaac

#820000
1aaaaa
1aaaac

#825000
0aaaac

#830000
1aaaac

#835000
0aaaac

#840000
0aaaaa
1aaaac

#845000
0aaaac

#850000
1aaaac
1aaaad

#855000
0aaaac

#860000
1aaaac
0aaaad

#865000
0aaaac

#870000
1aaaac

#875000
0aaaac

#880000
1aaaac

#885000
0aaaac

#890000
1aaaac

#895000
0aaaac

#900000
1aaaaa
1aaaac

#905000
0aaaac

#910000
0aaaaa
1aaaac

#915000
0aaaac

#920000
1aaaaa
1aaaac

#925000
0aaaac

#930000
1aaaac

#935000
0aaaac

#940000
1aaaac

#945000
0aaaac

#950000
0aaaaa
1aaaac

#955000
0aaaac

#960000
1aaaaa
1aaaac

#965000
0aaaac

#970000
1aaaac

#975000
0aaaac

#980000
0aaaaa
1aaaac

#985000
0aaaac

#990000
1aaaac
1aaaad

#995000
0aaaac

#1000000
1aaaac
0aaaad

#1005000
0aaaac

#1010000
1aaaac

#1015000
0aaaac

#1020000
1aaaac

#1025000
0aaaac

#1030000
1aaaac

#1035000
0aaaac

#1040000
1aaaaa
1aaaac

#1045000
0aaaac

#1050000
0aaaaa
1aaaac

#1055000
0aaaac

#1060000
1aaaaa
1aaaac

#1065000
0aaaac

#1070000
1aaaac

#1075000
0aaaac

#1080000
1aaaac

#1085000
0aaaac

#1090000
0aaaaa
1aaaac

#1095000
0aaaac

#1100000
1aaaaa
1aaaac

#1105000
0aaaac

#1110000
1aaaac

#1115000
0aaaac

#1120000
0aaaaa
1aaaac

#1125000
0aaaac

#1130000
1aaaac
1aaaad

#1135000
0aaaac

#1140000
1aaaac
0aaaad

#1145000
0aaaac

#1150000
1aaaac

#1155000
0aaaac

#1160000
1aaaac

#1165000
0aaaac

#1170000
1aaaac

#1175000
0aaaac

#1180000
1aaaaa
1aaaac

#1185000
0aaaac

#1190000
0aaaaa
1aaaac

#1195000
0aaaac

#1200000
1aaaaa
1aaaac

#1205000
0aaaac

#1210000
1aaaac

#1215000
0aaaac

#1220000
1aaaac

#1225000
0aaaac

#1230000
0aaaaa
1aaaac

#1235000
0aaaac

#1240000
1aaaaa
1aaaac

#1245000
0aaaac

#1250000
1aaaac

#1255000
0aaaac

#1260000
0aaaaa
1aaaac

#1265000
0aaaac

#1270000
1aaaac
1aaaad

#1275000
0aaaac

#1280000
1aaaac
0aaaad

#1285000
0aaaac

#1290000
1aaaac

#1295000
0aaaac

#1300000
1aaaac

#1305000
0aaaac

#1310000
1aaaac

#1315000
0aaaac

#1320000
1aaaaa
1aaaac

#1325000
0aaaac

#1330000
0aaaaa
1aaaac

#1335000
0aaaac

#1340000
1aaaaa
1aaaac

#1345000
0aaaac

#1350000
1aaaac

#1355000
0aaaac

#1360000
1aaaac

#1365000
0aaaac

#1370000
0aaaaa
1aaaac

#1375000
0aaaac

#1380000
1aaaaa
1aaaac

#1385000
0aaaac

#1390000
1aaaac

#1395000
0aaaac

#1400000
0aaaaa
1aaaac

#1405000
0aaaac

#1410000
1aaaac
1aaaad

#1415000
0aaaac

#1420000
1aaaac
0aaaad

#1425000
0aaaac

#1430000
1aaaac

#1435000
0aaaac

#1440000
1aaaac

#1445000
0aaaac

#1450000
1aaaac

#1455000
0aaaac

#1460000
1aaaaa
1aaaac

#1465000
0aaaac

#1470000
0aaaaa
1aaaac

#1475000
0aaaac

#1480000
1aaaaa
1aaaac

#1485000
0aaaac

#1490000
1aaaac

#1495000
0aaaac

#1500000
1aaaac

#1505000
0aaaac

#1510000
0aaaaa
1aaaac

#1515000
0aaaac

#1520000
1aaaaa
1aaaac

#1525000
0aaaac

#1530000
1aaaac

#1535000
0aaaac

#1540000
0aaaaa
1aaaac

#1545000
0aaaac

#1550000
1aaaac
1aaaad

#1555000
0aaaac

#1560000
1aaaac
0aaaad

#1565000
0aaaac

#1570000
1aaaac

#1575000
0aaaac

#1580000
1aaaac

#1585000
0aaaac

#1590000
1aaaac

#1595000
0aaaac

#1600000
1aaaaa
1aaaac

#1605000
0aaaac

#1610000
0aaaaa
1aaaac

#1615000
0aaaac

#1620000
1aaaaa
1aaaac

#1625000
0aaaac

#1630000
1aaaac

#1635000
0aaaac

#1640000
1aaaac

#1645000
0aaaac

#1650000
0aaaaa
1aaaac

#1655000
0aaaac

#1660000
1aaaaa
1aaaac

#1665000
0aaaac

#1670000
1aaaac

#1675000
0aaaac

#1680000
0aaaaa
1aaaac

#1685000
0aaaac

#1690000
1aaaac
1aaaad

#1695000
0aaaac

#1700000
1aaaac
0aaaad

#1705000
0aaaac

#1710000
1aaaac

#1715000
0aaaac

#1720000
1aaaac

#1725000
0aaaac

#1730000
1aaaac

#1735000
0aaaac

#1740000
1aaaaa
1aaaac

#1745000
0aaaac

#1750000
0aaaaa
1aaaac

#1755000
0aaaac

#1760000
1aaaaa
1aaaac

#1765000
0aaaac

#1770000
1aaaac

#1775000
0aaaac

#1780000
1aaaac

#1785000
0aaaac

#1790000
0aaaaa
1aaaac

#1795000
0aaaac

#1800000
1aaaaa
1aaaac

#1805000
0aaaac

#1810000
1aaaac

#1815000
0aaaac

#1820000
0aaaaa
1aaaac

#1825000
0aaaac

#1830000
1aaaac
1aaaad

#1835000
0aaaac

#1840000
1aaaac
0aaaad

#1845000
0aaaac

#1850000
1aaaac

#1855000
0aaaac

#1860000
1aaaac

#1865000
0aaaac

#1870000
1aaaac

#1875000
0aaaac

#1880000
1aaaaa
1aaaac

#1885000
0aaaac

#1890000
0aaaaa
1aaaac

#1895000
0aaaac

#1900000
1aaaaa
1aaaac

#1905000
0aaaac

#1910000
1aaaac

#1915000
0aaaac

#1920000
1aaaac

#1925000
0aaaac

#1930000
0aaaaa
1aaaac

#1935000
0aaaac

#1940000
1aaaaa
1aaaac

#1945000
0aaaac

#1950000
1aaaac

#1955000
0aaaac

#1960000
0aaaaa
1aaaac

#1965000
0aaaac

#1970000
1aaaac
1aaaad

#1975000
0aaaac

#1980000
1aaaac
0aaaad

#1985000
0aaaac

#1990000
1aaaac

#1995000
0aaaac

#2000000
1aaaac

#2005000
0aaaac

#2010000
1aaaac

#2015000
0aaaac

#2020000
1aaaaa
1aaaac

#2025000
0aaaac

#2030000
0aaaaa
1aaaac

#2035000
0aaaac

#2040000
1aaaaa
1aaaac

#2045000
0aaaac

#2050000
1aaaac

#2055000
0aaaac

#2060000
1aaaac

#2065000
0aaaac

#2070000
0aaaaa
1aaaac

#2075000
0aaaac

#2080000
1aaaaa
1aaaac

#2085000
0aaaac

#2090000
1aaaac

#2095000
0aaaac

#2100000
0aaaaa
1aaaac

#2105000
0aaaac

#2110000
1aaaac
1aaaad

#2115000
0aaaac

#2120000
1aaaac
0aaaad

#2125000
0aaaac

#2130000
1aaaac

#2135000
0aaaac

#2140000
1aaaac

#2145000
0aaaac

#2150000
1aaaac

#2155000
0aaaac

#2160000
1aaaaa
1aaaac

#2165000
0aaaac

#2170000
0aaaaa
1aaaac

#2175000
0aaaac

#2180000
1aaaaa
1aaaac

#2185000
0aaaac

#2190000
1aaaac

#2195000
0aaaac

#2200000
1aaaac

#2205000
0aaaac

#2210000
0aaaaa
1aaaac

#2215000
0aaaac

#2220000
1aaaaa
1aaaac

#2225000
0aaaac

#2230000
1aaaac

#2235000
0aaaac

#2240000
0aaaaa
1aaaac

#2245000
0aaaac

#2250000
1aaaac
1aaaad

#2255000
0aaaac

#2260000
1aaaac
0aaaad

#2265000
0aaaac

#2270000
1aaaac

#2275000
0aaaac

#2280000
1aaaac

#2285000
0aaaac

#2290000
1aaaac

#2295000
0aaaac

#2300000
1aaaaa
1aaaac

#2305000
0aaaac

#2310000
0aaaaa
1aaaac

#2315000
0aaaac

#2320000
1aaaaa
1aaaac

#2325000
0aaaac

#2330000
1aaaac

#2335000
0aaaac

#2340000
1aaaac

#2345000
0aaaac

#2350000
0aaaaa
1aaaac

#2355000
0aaaac

#2360000
1aaaaa
1aaaac

#2365000
0aaaac

#2370000
1aaaac

#2375000
0aaaac

#2380000
0aaaaa
1aaaac

#2385000
0aaaac

#2390000
1aaaac
1aaaad

#2395000
0aaaac

#2400000
1aaaac
0aaaad

#2405000
0aaaac

#2410000
1aaaac

#2415000
0aaaac

#2420000
1aaaac

#2425000
0aaaac

#2430000
1aaaac

#2435000
0aaaac

#2440000
1aaaaa
1aaaac

#2445000
0aaaac

#2450000
0aaaaa
1aaaac

#2455000
0aaaac

#2460000
1aaaaa
1aaaac

#2465000
0aaaac

#2470000
1aaaac

#2475000
0aaaac

#2480000
1aaaac

#2485000
0aaaac

#2490000
0aaaaa
1aaaac

#2495000
0aaaac

#2500000
1aaaaa
1aaaac

#2505000
0aaaac

#2510000
1aaaac

#2515000
0aaaac

#2520000
0aaaaa
1aaaac

#2525000
0aaaac

#2530000
1aaaac
1aaaad

#2535000
0aaaac

#2540000
1aaaac
0aaaad

#2545000
0aaaac

#2550000
1aaaac

#2555000
0aaaac

#2560000
1aaaac

#2565000
0aaaac

#2570000
1aaaac

#2575000
0aaaac

#2580000
1aaaaa
1aaaac

#2585000
0aaaac

#2590000
0aaaaa
1aaaac

#2595000
0aaaac

#2600000
1aaaaa
1aaaac

#2605000
0aaaac

#2610000
1aaaac

#2615000
0aaaac

#2620000
1aaaac

#2625000
0aaaac

#2630000
0aaaaa
1aaaac

#2635000
0aaaac

#2640000
1aaaaa
1aaaac

#2645000
0aaaac

#2650000
1aaaac

#2655000
0aaaac

#2660000
0aaaaa
1aaaac

#2665000
0aaaac

#2670000
1aaaac
1aaaad

#2675000
0aaaac

#2680000
1aaaac
0aaaad

#2685000
0aaaac

#2690000
1aaaac

#2695000
0aaaac

#2700000
1aaaac

#2705000
0aaaac

#2710000
1aaaac

#2715000
0aaaac

#2720000
1aaaaa
1aaaac

#2725000
0aaaac

#2730000
0aaaaa
1aaaac

#2735000
0aaaac

#2740000
1aaaaa
1aaaac

#2745000
0aaaac

#2750000
1aaaac

#2755000
0aaaac

#2760000
1aaaac

#2765000
0aaaac

#2770000
0aaaaa
1aaaac

#2775000
0aaaac

#2780000
1aaaaa
1aaaac

#2785000
0aaaac

#2790000
1aaaac

#2795000
0aaaac

#2800000
0aaaaa
1aaaac

#2805000
0aaaac

#2810000
1aaaac
1aaaad

#2815000
0aaaac

#2820000
1aaaac
0aaaad

#2825000
0aaaac

#2830000
1aaaac

#2835000
0aaaac

#2840000
1aaaac

#2845000
0aaaac

#2850000
1aaaac

#2855000
0aaaac

#2860000
1aaaaa
1aaaac

#2865000
0aaaac

#2870000
0aaaaa
1aaaac

#2875000
0aaaac

#2880000
1aaaaa
1aaaac

#2885000
0aaaac

#2890000
1aaaac

#2895000
0aaaac

#2900000
1aaaac

#2905000
0aaaac

#2910000
0aaaaa
1aaaac

#2915000
0aaaac

#2920000
1aaaaa
1aaaac

#2925000
0aaaac

#2930000
1aaaac

#2935000
0aaaac

#2940000
0aaaaa
1aaaac

#2945000
0aaaac

#2950000
1aaaac
1aaaad

#2955000
0aaaac

#2960000
1aaaac
0aaaad

#2965000
0aaaac

#2970000
1aaaac

#2975000
0aaaac

#2980000
1aaaac

#2985000
0aaaac

#2990000
1aaaac

#2995000
0aaaac

#3000000
1aaaaa
1aaaac

#3005000
0aaaac

#3010000
0aaaaa
1aaaac

#3015000
0aaaac

#3020000
1aaaaa
1aaaac

#3025000
0aaaac

#3030000
1aaaac

#3035000
0aaaac

#3040000
1aaaac

#3045000
0aaaac

#3050000
0aaaaa
1aaaac

#3055000
0aaaac

#3060000
1aaaaa
1aaaac

#3065000
0aaaac

#3070000
1aaaac

#3075000
0aaaac

#3080000
0aaaaa
1aaaac

#3085000
0aaaac

#3090000
1aaaac
1aaaad

#3095000
0aaaac

#3100000
1aaaac
0aaaad

#3105000
0aaaac

#3110000
1aaaac

#3115000
0aaaac

#3120000
1aaaac

#3125000
0aaaac

#3130000
1aaaac

#3135000
0aaaac

#3140000
1aaaaa
1aaaac

#3145000
0aaaac

#3150000
0aaaaa
1aaaac

#3155000
0aaaac

#3160000
1aaaaa
1aaaac

#3165000
0aaaac

#3170000
1aaaac

#3175000
0aaaac

#3180000
1aaaac

#3185000
0aaaac

#3190000
0aaaaa
1aaaac

#3195000
0aaaac

#3200000
1aaaaa
1aaaac

#3205000
0aaaac

#3210000
1aaaac

#3215000
0aaaac

#3220000
0aaaaa
1aaaac

#3225000
0aaaac

#3230000
1aaaac
1aaaad

#3235000
0aaaac

#3240000
1aaaac
0aaaad

#3245000
0aaaac

#3250000
1aaaac

#3255000
0aaaac

#3260000
1aaaac

#3265000
0aaaac

#3270000
1aaaac

#3275000
0aaaac

#3280000
1aaaaa
1aaaac

#3285000
0aaaac

#3290000
0aaaaa
1aaaac

#3295000
0aaaac

#3300000
1aaaaa
1aaaac

#3305000
0aaaac

#3310000
1aaaac

#3315000
0aaaac

#3320000
1aaaac

#3325000
0aaaac

#3330000
0aaaaa
1aaaac

#3335000
0aaaac

#3340000
1aaaaa
1aaaac

#3345000
0aaaac

#3350000
1aaaac

#3355000
0aaaac

#3360000
0aaaaa
1aaaac

#3365000
0aaaac

#3370000
1aaaac
1aaaad

#3375000
0aaaac

#3380000
1aaaac
0aaaad

#3385000
0aaaac

#3390000
1aaaac

#3395000
0aaaac

#3400000
1aaaac

#3405000
0aaaac

#3410000
1aaaac

#3415000
0aaaac

#3420000
1aaaaa
1aaaac

#3425000
0aaaac

#3430000
0aaaaa
1aaaac

#3435000
0aaaac

#3440000
1aaaaa
1aaaac

#3445000
0aaaac

#3450000
1aaaac

#3455000
0aaaac

#3460000
1aaaac

#3465000
0aaaac

#3470000
0aaaaa
1aaaac

#3475000
0aaaac

#3480000
1aaaaa
1aaaac

#3485000
0aaaac

#3490000
1aaaac

#3495000
0aaaac

#3500000
0aaaaa
1aaaac

#3505000
0aaaac

#3510000
1aaaac
1aaaad

#3515000
0aaaac

#3520000
1aaaac
0aaaad

#3525000
0aaaac

#3530000
1aaaac

#3535000
0aaaac

#3540000
1aaaac

#3545000
0aaaac

#3550000
1aaaac

#3555000
0aaaac

#3560000
1aaaaa
1aaaac

#3565000
0aaaac

#3570000
0aaaaa
1aaaac

#3575000
0aaaac

#3580000
1aaaaa
1aaaac

#3585000
0aaaac

#3590000
1aaaac

#3595000
0aaaac

#3600000
1aaaac

#3605000
0aaaac

#3610000
0aaaaa
1aaaac

#3615000
0aaaac

#3620000
1aaaaa
1aaaac

#3625000
0aaaac

#3630000
1aaaac

#3635000
0aaaac

#3640000
0aaaaa
1aaaac

#3645000
0aaaac

#3650000
1aaaac
1aaaad

#3655000
0aaaac

#3660000
1aaaac
0aaaad

#3665000
0aaaac

#3670000
1aaaac

#3675000
0aaaac

#3680000
1aaaac

#3685000
0aaaac

#3690000
1aaaac

#3695000
0aaaac

#3700000
1aaaaa
1aaaac

#3705000
0aaaac

#3710000
0aaaaa
1aaaac

#3715000
0aaaac

#3720000
1aaaaa
1aaaac

#3725000
0aaaac

#3730000
1aaaac

#3735000
0aaaac

#3740000
1aaaac

#3745000
0aaaac

#3750000
0aaaaa
1aaaac

#3755000
0aaaac

#3760000
1aaaaa
1aaaac

#3765000
0aaaac

#3770000
1aaaac

#3775000
0aaaac

#3780000
0aaaaa
1aaaac

#3785000
0aaaac

#3790000
1aaaac
1aaaad

#3795000
0aaaac

#3800000
1aaaac
0aaaad

#3805000
0aaaac

#3810000
1aaaac

#3815000
0aaaac

#3820000
1aaaac

#3825000
0aaaac

#3830000
1aaaac

#3835000
0aaaac

#3840000
1aaaaa
1aaaac

#3845000
0aaaac

#3850000
0aaaaa
1aaaac

#3855000
0aaaac

#3860000
1aaaaa
1aaaac

#3865000
0aaaac

#3870000
1aaaac

#3875000
0aaaac

#3880000
1aaaac

#3885000
0aaaac

#3890000
0aaaaa
1aaaac

#3895000
0aaaac

#3900000
1aaaaa
1aaaac

#3905000
0aaaac

#3910000
1aaaac

#3915000
0aaaac

#3920000
0aaaaa
1aaaac

#3925000
0aaaac

#3930000
1aaaac
1aaaad

#3935000
0aaaac

#3940000
1aaaac
0aaaad

#3945000
0aaaac

#3950000
1aaaac

#3955000
0aaaac

#3960000
1aaaac

#3965000
0aaaac

#3970000
1aaaac

#3975000
0aaaac

#3980000
1aaaaa
1aaaac

#3985000
0aaaac

#3990000
0aaaaa
1aaaac

