5_Sequence Detector/sequenceDetector.vcd
$date
     Aug 12, 2015       18:19:44
$end

$version
 SystemC 2.3.1-Accellera --- Aug  2 2015 20:10:13
$end

$timescale
     1 ps
$end

$scope module SystemC $end
$var wire    1  aaaaa  serialInput       $end
$var wire    1  aaaab  reset       $end
$var wire    1  aaaac  clock       $end
$var wire    1  aaaad  mooreOutput       $end
$upscope $end
$enddefinitions  $end

$comment
All initial values are dumped below at time 0 sec = 0 timescale units.
$end

$dumpvars
xaaaaa
xaaaab
xaaaac
0aaaad
$end

#17000
0aaaac

#34000
1aaaac

#37000
1aaaaa
0aaaab

#51000
0aaaac

#68000
1aaaac

#85000
0aaaac

#96000
1aaaab

#102000
1aaaac

#119000
0aaaac

#120000
0aaaaa

#136000
1aaaac

#153000
0aaaac

#155000
0aaaab

#161000
1aaaaa

#170000
1aaaac

#187000
0aaaac

#204000
1aaaac

#218000
0aaaaa

#221000
0aaaac

#238000
1aaaac

#255000
1aaaaa
0aaaac

#272000
1aaaac

#289000
0aaaac

#306000
1aaaac
1aaaad

#323000
0aaaac

#338000
0aaaaa

#340000
1aaaac
0aaaad

#357000
0aaaac

#374000
1aaaac

#379000
1aaaaa

#391000
0aaaac

#408000
1aaaac

#425000
0aaaac

#436000
0aaaaa

#442000
1aaaac

#459000
0aaaac

#473000
1aaaaa

#476000
1aaaac

#493000
0aaaac

#510000
1aaaac

#527000
0aaaac

#544000
1aaaac

#556000
0aaaaa

#561000
0aaaac

#578000
1aaaac

#595000
0aaaac

#597000
1aaaaa

#612000
1aaaac

#629000
0aaaac

#646000
1aaaac
1aaaad

#654000
0aaaaa

#663000
0aaaac

#680000
1aaaac
0aaaad

#691000
1aaaaa

#697000
0aaaac

#714000
1aaaac

#731000
0aaaac

#748000
1aaaac
1aaaad

#765000
0aaaac

#774000
0aaaaa

#782000
1aaaac
0aaaad

#799000
0aaaac

#815000
1aaaaa

#816000
1aaaac

#833000
0aaaac

#850000
1aaaac
1aaaad

#867000
0aaaac

#872000
0aaaaa

#884000
1aaaac
0aaaad

#901000
0aaaac

#909000
1aaaaa

#918000
1aaaac

#935000
0aaaac

#952000
1aaaac
1aaaad

#969000
0aaaac

#986000
1aaaac

#992000
0aaaaa

#1003000
0aaaac

#1020000
1aaaac
0aaaad

#1033000
1aaaaa

#1037000
0aaaac

#1054000
1aaaac

#1071000
0aaaac

#1088000
1aaaac
1aaaad

#1090000
0aaaaa

#1105000
0aaaac

#1122000
1aaaac
0aaaad

#1127000
1aaaaa

#1139000
0aaaac

#1156000
1aaaac

#1173000
0aaaac

#1190000
1aaaac
1aaaad

#1207000
0aaaac

#1210000
0aaaaa

#1224000
1aaaac
0aaaad

#1241000
0aaaac

#1251000
1aaaaa

#1258000
1aaaac

#1275000
0aaaac

#1292000
1aaaac
1aaaad

#1308000
0aaaaa

#1309000
0aaaac

#1326000
1aaaac
0aaaad

#1343000
0aaaac

#1345000
1aaaaa

#1360000
1aaaac

#1377000
0aaaac

#1394000
1aaaac
1aaaad

#1411000
0aaaac

#1428000
0aaaaa
1aaaac

#1445000
0aaaac

#1462000
1aaaac
0aaaad

#1469000
1aaaaa

#1479000
0aaaac

#1496000
1aaaac

#1513000
0aaaac

#1526000
0aaaaa

#1530000
1aaaac

#1547000
0aaaac

#1563000
1aaaaa

#1564000
1aaaac

#1581000
0aaaac

#1598000
1aaaac

#1615000
0aaaac

#1632000
1aaaac

#1646000
0aaaaa

#1649000
0aaaac

#1666000
1aaaac

#1683000
0aaaac

#1687000
1aaaaa

#1700000
1aaaac

#1717000
0aaaac

#1734000
1aaaac
1aaaad

#1744000
0aaaaa

#1751000
0aaaac

#1768000
1aaaac
0aaaad

#1781000
1aaaaa

#1785000
0aaaac

#1802000
1aaaac

#1819000
0aaaac

#1836000
1aaaac
1aaaad

#1853000
0aaaac

#1864000
0aaaaa

#1870000
1aaaac
0aaaad

#1887000
0aaaac

#1904000
1aaaac

#1905000
1aaaaa

#1921000
0aaaac

#1938000
1aaaac

#1955000
0aaaac

#1962000
0aaaaa

#1972000
1aaaac

#1989000
0aaaac

#1999000
1aaaaa

#2006000
1aaaac

#2023000
0aaaac

#2040000
1aaaac

#2057000
0aaaac

#2074000
1aaaac

#2082000
0aaaaa

#2091000
0aaaac

#2108000
1aaaac

#2123000
1aaaaa

#2125000
0aaaac

#2142000
1aaaac

#2159000
0aaaac

#2176000
1aaaac
1aaaad

#2180000
0aaaaa

#2193000
0aaaac

#2210000
1aaaac
0aaaad

#2217000
1aaaaa

#2227000
0aaaac

#2244000
1aaaac

#2261000
0aaaac

#2278000
1aaaac
1aaaad

#2295000
0aaaac

#2300000
0aaaaa

#2312000
1aaaac
0aaaad

#2329000
0aaaac

#2341000
1aaaaa

#2346000
1aaaac

#2363000
0aaaac

#2380000
1aaaac
1aaaad

#2397000
0aaaac

#2398000
0aaaaa

#2414000
1aaaac
0aaaad

#2431000
0aaaac

#2435000
1aaaaa

#2448000
1aaaac

#2465000
0aaaac

#2482000
1aaaac
1aaaad

#2499000
0aaaac

#2516000
1aaaac

#2518000
0aaaaa

#2533000
0aaaac

#2550000
1aaaac
0aaaad

#2559000
1aaaaa

#2567000
0aaaac

#2584000
1aaaac

#2601000
0aaaac

#2616000
0aaaaa

#2618000
1aaaac

#2635000
0aaaac

#2652000
1aaaac

#2653000
1aaaaa

#2669000
0aaaac

#2686000
1aaaac

#2703000
0aaaac

#2720000
1aaaac

#2736000
0aaaaa

#2737000
0aaaac

#2754000
1aaaac

#2771000
0aaaac

#2777000
1aaaaa

#2788000
1aaaac

#2805000
0aaaac

#2822000
1aaaac
1aaaad

#2834000
0aaaaa

#2839000
0aaaac

#2856000
1aaaac
0aaaad

#2871000
1aaaaa

#2873000
0aaaac

#2890000
1aaaac

#2907000
0aaaac

#2924000
1aaaac
1aaaad

#2941000
0aaaac

#2954000
0aaaaa

#2958000
1aaaac
0aaaad

#2975000
0aaaac

#2992000
1aaaac

#2995000
1aaaaa

#3009000
0aaaac

#3026000
1aaaac

#3043000
0aaaac

#3052000
0aaaaa

#3060000
1aaaac

#3077000
0aaaac

#3089000
1aaaaa

#3094000
1aaaac

#3111000
0aaaac

#3128000
1aaaac

#3145000
0aaaac

#3162000
1aaaac

#3172000
0aaaaa

#3179000
0aaaac

#3196000
1aaaac

#3213000
1aaaaa
0aaaac

#3230000
1aaaac

#3247000
0aaaac

#3264000
1aaaac
1aaaad

#3270000
0aaaaa

#3281000
0aaaac

#3298000
1aaaac
0aaaad

#3307000
1aaaaa

#3315000
0aaaac

#3332000
1aaaac

#3349000
0aaaac

#3366000
1aaaac
1aaaad

#3383000
0aaaac

#3390000
0aaaaa

#3400000
1aaaac
0aaaad

#3417000
0aaaac

#3431000
1aaaaa

#3434000
1aaaac

#3451000
0aaaac

#3468000
1aaaac
1aaaad

#3485000
0aaaac

#3488000
0aaaaa

#3502000
1aaaac
0aaaad

#3519000
0aaaac

#3525000
1aaaaa

#3536000
1aaaac

#3553000
0aaaac

#3570000
1aaaac
1aaaad

#3587000
0aaaac

#3604000
1aaaac

#3608000
0aaaaa

#3621000
0aaaac

#3638000
1aaaac
0aaaad

#3649000
1aaaaa

#3655000
0aaaac

#3672000
1aaaac

#3689000
0aaaac

#3706000
0aaaaa
1aaaac
1aaaad

#3723000
0aaaac

#3740000
1aaaac
0aaaad

#3743000
1aaaaa

#3757000
0aaaac

#3774000
1aaaac

#3791000
0aaaac

#3808000
1aaaac
1aaaad

#3825000
0aaaac

#3826000
0aaaaa

#3842000
1aaaac
0aaaad

#3859000
0aaaac

#3867000
1aaaaa

#3876000
1aaaac

#3893000
0aaaac

#3910000
1aaaac
1aaaad

#3924000
0aaaaa

#3927000
0aaaac

#3944000
1aaaac
0aaaad

#3961000
1aaaaa
0aaaac

