RTL Handshaking/RTL Handshaking/Handshaking.vcd
$date
     Dec 09, 2015       18:00:13
$end

$version
 SystemC 2.3.1-Accellera --- Aug  2 2015 20:10:13
$end

$timescale
     1 ps
$end

$scope module SystemC $end
$var wire    1  aaaaa  Clk       $end
$var wire    1  aaaab  GoStart       $end
$var wire    1  aaaac  SerialIn       $end
$var wire    1  aaaad  Ready4Serial       $end
$var wire    8  aaaae  Output2Stack [7:0]  $end
$var wire    1  aaaaf  Push       $end
$var wire    8  aaaag  collectBits [7:0]  $end
$var wire    1  aaaah  parReady       $end
$var wire    1  aaaai  parAccepted       $end
$var wire    3  aaaaj  countBits [2:0]  $end
$upscope $end
$enddefinitions  $end

$comment
All initial values are dumped below at time 0 sec = 0 timescale units.
$end

$dumpvars
0aaaaa
0aaaab
0aaaac
1aaaad
b0 aaaae
0aaaaf
bXXXXXXXX aaaag
0aaaah
0aaaai
bXXX aaaaj
$end

#29000
1aaaaa

#58000
0aaaaa

#87000
1aaaaa

#116000
0aaaaa

#122000
1aaaab

#145000
1aaaaa
0aaaad

#174000
0aaaaa

#195000
0aaaab

#203000
1aaaaa
b0 aaaaj

#229000
1aaaac

#232000
0aaaaa

#261000
1aaaaa
b1XXXXXXX aaaag
b1 aaaaj

#275000
0aaaac

#290000
0aaaaa

#319000
1aaaaa
b1XXXXXX aaaag
b10 aaaaj

#348000
0aaaaa

#371000
1aaaac

#377000
1aaaaa
b101XXXXX aaaag
b11 aaaaj

#406000
0aaaaa

#417000
0aaaac

#435000
1aaaaa
b101XXXX aaaag
b100 aaaaj

#464000
0aaaaa

#493000
1aaaaa
b101XXX aaaag
b101 aaaaj

#513000
1aaaac

#522000
0aaaaa

#551000
1aaaaa
b100101XX aaaag
b110 aaaaj

#559000
0aaaac

#580000
0aaaaa

#609000
1aaaaa
b100101X aaaag
b111 aaaaj

#638000
0aaaaa

#655000
1aaaac

#667000
1aaaaa
b10100101 aaaag
1aaaah
b0 aaaaj

#696000
0aaaaa

#701000
0aaaac

#725000
1aaaaa
b10100101 aaaae
1aaaai

#754000
0aaaaa

#783000
1aaaaa
1aaaad
0aaaah

#797000
1aaaac

#812000
0aaaaa

#841000
1aaaaa
1aaaaf
0aaaai

#843000
0aaaac

#870000
0aaaaa

#899000
1aaaaa
b0 aaaae
0aaaaf

#928000
0aaaaa

#939000
1aaaac

#957000
1aaaaa

#985000
0aaaac

#986000
0aaaaa

#1015000
1aaaaa

#1044000
0aaaaa

#1073000
1aaaaa

#1081000
1aaaac

#1102000
0aaaaa

#1127000
0aaaac

#1131000
1aaaaa

#1160000
0aaaaa

#1189000
1aaaaa
1aaaac

#1218000
0aaaaa

#1220000
1aaaab

#1247000
1aaaaa
0aaaad

#1276000
0aaaaa

#1293000
0aaaab
0aaaac

#1305000
1aaaaa

#1334000
0aaaaa

#1344000
1aaaac

#1363000
1aaaaa
b11010010 aaaag
b1 aaaaj

#1392000
0aaaaa

#1413000
0aaaac

#1421000
1aaaaa
b1101001 aaaag
b10 aaaaj

#1450000
0aaaaa

#1479000
1aaaaa
b110100 aaaag
b11 aaaaj

#1508000
0aaaaa

#1537000
1aaaaa
b11010 aaaag
b100 aaaaj

#1557000
1aaaac

#1566000
0aaaaa

#1595000
1aaaaa
b10001101 aaaag
b101 aaaaj

#1624000
0aaaaa

#1626000
0aaaac

#1653000
1aaaaa
b1000110 aaaag
b110 aaaaj

#1682000
0aaaaa

#1711000
1aaaaa
b100011 aaaag
b111 aaaaj

#1740000
0aaaaa

#1769000
1aaaaa
b10001 aaaag
1aaaah
b0 aaaaj

#1770000
1aaaac

#1798000
0aaaaa

#1827000
1aaaaa
b10001 aaaae
1aaaai

#1839000
0aaaac

#1856000
0aaaaa

#1885000
1aaaaa
1aaaad
0aaaah

#1914000
0aaaaa

#1943000
1aaaaa
1aaaaf
0aaaai

#1972000
0aaaaa

#1983000
1aaaac

#2001000
1aaaaa
b0 aaaae
0aaaaf

#2030000
0aaaaa

#2052000
0aaaac

#2059000
1aaaaa

#2088000
0aaaaa

#2117000
1aaaaa

#2146000
0aaaaa

#2175000
1aaaaa

#2196000
1aaaac

#2204000
0aaaaa

#2233000
1aaaaa

#2262000
0aaaaa

#2265000
0aaaac

#2291000
1aaaaa

#2320000
0aaaaa

#2349000
1aaaaa

#2378000
0aaaaa

#2407000
1aaaaa

#2409000
1aaaac

#2436000
0aaaaa

#2465000
1aaaaa

#2478000
0aaaac

#2494000
0aaaaa

#2523000
1aaaaa

#2552000
0aaaaa

#2581000
1aaaaa

#2610000
0aaaaa

#2622000
1aaaac

#2639000
1aaaaa

#2668000
0aaaaa

#2691000
0aaaac

#2697000
1aaaaa

#2726000
0aaaaa

#2755000
1aaaaa

#2784000
0aaaaa
1aaaac

#2813000
1aaaaa

#2815000
1aaaab

#2842000
0aaaaa

#2871000
1aaaaa
0aaaad

#2888000
0aaaab
0aaaac

#2900000
0aaaaa

#2929000
1aaaaa

#2956000
1aaaac

#2958000
0aaaaa

#2987000
1aaaaa
b10001000 aaaag
b1 aaaaj

#3016000
0aaaaa

#3045000
1aaaaa
b11000100 aaaag
b10 aaaaj

#3048000
0aaaac

#3074000
0aaaaa

#3103000
1aaaaa
b1100010 aaaag
b11 aaaaj

#3132000
0aaaaa

#3161000
1aaaaa
b110001 aaaag
b100 aaaaj

#3190000
0aaaaa

#3219000
1aaaaa
b11000 aaaag
b101 aaaaj

#3240000
1aaaac

#3248000
0aaaaa

#3277000
1aaaaa
b10001100 aaaag
b110 aaaaj

#3306000
0aaaaa

#3332000
0aaaac

#3335000
1aaaaa
b1000110 aaaag
b111 aaaaj

#3364000
0aaaaa

#3393000
1aaaaa
b100011 aaaag
1aaaah
b0 aaaaj

#3422000
0aaaaa

#3451000
1aaaaa
b100011 aaaae
1aaaai

#3480000
0aaaaa

#3509000
1aaaaa
1aaaad
0aaaah

#3524000
1aaaac

#3538000
0aaaaa

#3567000
1aaaaa
1aaaaf
0aaaai

#3596000
0aaaaa

#3616000
0aaaac

#3625000
1aaaaa
b0 aaaae
0aaaaf

#3654000
0aaaaa

#3683000
1aaaaa

#3712000
0aaaaa

#3741000
1aaaaa

#3770000
0aaaaa

#3799000
1aaaaa

#3808000
1aaaac

#3828000
0aaaaa

#3857000
1aaaaa

#3886000
0aaaaa

#3900000
0aaaac

#3915000
1aaaaa

#3944000
0aaaaa

#3973000
1aaaaa

#4002000
0aaaaa

#4031000
1aaaaa

#4060000
0aaaaa

#4089000
1aaaaa

#4092000
1aaaac

#4118000
0aaaaa

#4147000
1aaaaa

#4176000
0aaaaa

#4184000
0aaaac

#4205000
1aaaaa

#4234000
0aaaaa

#4263000
1aaaaa

#4292000
0aaaaa

#4321000
1aaaaa

#4350000
0aaaaa

#4376000
1aaaac

#4379000
1aaaaa

#4408000
0aaaaa

#4437000
1aaaaa

#4466000
0aaaaa

#4468000
0aaaac

