DMA Channel/dmaBurstRW/Generic/Handshake.vcd
$date
     Dec 25, 2011       01:02:58
$end

$version
              SystemC 2.2.0 --- Dec 24 2011 11:14:08
$end

$timescale
     1 ps
$end

$scope module SystemC $end
$var wire    1  aaa  Clk       $end
$var wire    1  aab  Serial In       $end
$var wire    1  aac  Ready       $end
$var wire    1  aad  parAccepted       $end
$var wire    1  aae  parReady       $end
$var wire    8  aaf  parOut [7:0]  $end
$upscope $end
$enddefinitions  $end

$comment
All initial values are dumped below at time 0 sec = 0 timescale units.
$end

$dumpvars
0aaa
0aab
xaac
0aad
0aae
b0 aaf
$end

#15000
1aac

#29000
1aaa

#58000
0aaa

#67000
1aab

#87000
1aaa

#116000
0aaa

#145000
1aaa

#158000
0aab

#174000
0aaa

#203000
1aaa

#225000
1aab

#232000
0aaa

#261000
1aaa

#290000
0aaa

#316000
0aab

#319000
1aaa

#348000
0aaa

#377000
1aaa

#383000
1aab

#406000
0aaa

#435000
1aaa

#464000
0aaa

#474000
0aab

#493000
1aaa
1aae
b10010110 aaf

#522000
0aaa

#541000
1aab

#551000
1aaa

#580000
0aaa

#609000
1aaa

#632000
0aab

#638000
0aaa

#667000
1aaa

#693000
0aac
0aae
b0 aaf

#696000
0aaa

#699000
1aab

#708000
1aac

#725000
1aaa

#754000
0aaa

#783000
1aaa

#790000
0aab

#812000
0aaa

#841000
1aaa

#857000
1aab

#870000
0aaa

#899000
1aaa

#928000
0aaa

#948000
0aab

#957000
1aaa

#986000
0aaa

#1015000
1aaa
1aab

#1044000
0aaa

#1073000
1aaa

#1102000
0aaa

#1106000
0aab

#1131000
1aaa

#1160000
0aaa

#1173000
1aab

#1189000
1aaa
1aae
b1101011 aaf

#1218000
0aaa

#1247000
1aaa

#1264000
0aab

#1276000
0aaa

#1305000
1aaa

#1331000
1aab

#1334000
0aaa

#1363000
1aaa

#1389000
0aac
0aae
b0 aaf

#1392000
0aaa

#1404000
1aac

#1421000
1aaa

#1422000
0aab

#1450000
0aaa

#1479000
1aaa

#1489000
1aab

#1508000
0aaa

#1537000
1aaa

#1566000
0aaa

#1580000
0aab

#1595000
1aaa

#1624000
0aaa

#1647000
1aab

#1653000
1aaa

#1682000
0aaa

#1711000
1aaa

#1738000
0aab

#1740000
0aaa

#1769000
1aaa

#1798000
0aaa

#1805000
1aab

#1827000
1aaa

#1856000
0aaa

#1885000
1aaa
1aae
b10110101 aaf

#1896000
0aab

#1914000
0aaa

#1943000
1aaa

#1963000
1aab

#1972000
0aaa

#2001000
1aaa

#2030000
0aaa

#2054000
0aab

#2059000
1aaa

#2085000
0aac
0aae
b0 aaf

#2088000
0aaa

#2100000
1aac

#2117000
1aaa

#2121000
1aab

#2146000
0aaa

#2175000
1aaa

#2204000
0aaa

#2212000
0aab

#2233000
1aaa

#2262000
0aaa

#2279000
1aab

#2291000
1aaa

#2320000
0aaa

#2349000
1aaa

#2370000
0aab

#2378000
0aaa

#2407000
1aaa

#2436000
0aaa

#2437000
1aab

