2_SystemCOneBitAdder/simpleHierarchical.vcd
$date
     Aug 09, 2015       16:08:00
$end

$version
 SystemC 2.3.1-Accellera --- Aug  2 2015 20:10:13
$end

$timescale
     1 ps
$end

$scope module SystemC $end
$var wire    1  aaaaa  aIn       $end
$var wire    1  aaaab  bIn       $end
$var wire    1  aaaac  carryIn       $end
$var wire    1  aaaad  carryOut       $end
$var wire    1  aaaae  sumOut       $end
$upscope $end
$enddefinitions  $end

$comment
All initial values are dumped below at time 0 sec = 0 timescale units.
$end

$dumpvars
xaaaaa
xaaaab
xaaaac
0aaaad
1aaaae
$end

#15000
0aaaaa
0aaaab
0aaaac
0aaaae

#80000
1aaaac
1aaaae

#145000
1aaaab
0aaaac

#210000
1aaaac
1aaaad
0aaaae

#275000
1aaaaa
0aaaab
0aaaac
0aaaad
1aaaae

#340000
1aaaac
1aaaad
0aaaae

#405000
1aaaab
0aaaac

#470000
1aaaac
1aaaae

#535000
0aaaaa
0aaaab
0aaaac
0aaaad
0aaaae

#600000
1aaaac
1aaaae

#665000
1aaaab
0aaaac

#730000
1aaaac
1aaaad
0aaaae

#795000
1aaaaa
0aaaab
0aaaac
0aaaad
1aaaae

#860000
1aaaac
1aaaad
0aaaae

#925000
1aaaab
0aaaac

#990000
1aaaac
1aaaae

#1055000
0aaaaa
0aaaab
0aaaac
0aaaad
0aaaae

#1120000
1aaaac
1aaaae

#1185000
1aaaab
0aaaac

#1250000
1aaaac
1aaaad
0aaaae

#1315000
1aaaaa
0aaaab
0aaaac
0aaaad
1aaaae

#1380000
1aaaac
1aaaad
0aaaae

#1445000
1aaaab
0aaaac

#1510000
1aaaac
1aaaae

#1575000
0aaaaa
0aaaab
0aaaac
0aaaad
0aaaae

#1640000
1aaaac
1aaaae

#1705000
1aaaab
0aaaac

#1770000
1aaaac
1aaaad
0aaaae

#1835000
1aaaaa
0aaaab
0aaaac
0aaaad
1aaaae

#1900000
1aaaac
1aaaad
0aaaae

#1965000
1aaaab
0aaaac

#2030000
1aaaac
1aaaae

#2095000
0aaaaa
0aaaab
0aaaac
0aaaad
0aaaae

#2160000
1aaaac
1aaaae

#2225000
1aaaab
0aaaac

#2290000
1aaaac
1aaaad
0aaaae

#2355000
1aaaaa
0aaaab
0aaaac
0aaaad
1aaaae

#2420000
1aaaac
1aaaad
0aaaae

#2485000
1aaaab
0aaaac

#2550000
1aaaac
1aaaae

