6_Exponential/Exponential_test.vcd
$date
     Oct 25, 2019       10:13:48
$end

$version
 SystemC 2.3.1-Accellera --- Sep 29 2019 11:41:37
$end

$timescale
     1 ps
$end

$scope module SystemC $end
$var wire    1  aaaaa  clk       $end
$var wire    1  aaaab  rst       $end
$var wire    1  aaaac  start       $end
$var wire    1  aaaad  busy       $end
$var wire    1  aaaae  done       $end
$var wire    8  aaaaf  x [7:0]  $end
$var wire   10  aaaag  result [9:0]  $end
$upscope $end
$enddefinitions  $end

$comment
All initial values are dumped below at time 0 sec = 0 timescale units.
$end

$dumpvars
0aaaaa
0aaaab
0aaaac
0aaaad
0aaaae
bXXXXXXXX aaaaf
bXXXXXXXXXX aaaag
$end

#5000
1aaaab
b0 aaaag

#10000
0aaaab
1aaaac
b11111111 aaaaf

#50000
1aaaaa

#70000
0aaaac

#100000
0aaaaa

#150000
1aaaaa
1aaaad
b100000000 aaaag

#200000
0aaaaa

#250000
1aaaaa

#300000
0aaaaa

#350000
1aaaaa

#400000
0aaaaa

#450000
1aaaaa
b111111101 aaaag

#500000
0aaaaa

#550000
1aaaaa

#600000
0aaaaa

#650000
1aaaaa

#700000
0aaaaa

#750000
1aaaaa
b1001111011 aaaag

#800000
0aaaaa

#850000
1aaaaa

#900000
0aaaaa

#950000
1aaaaa

#1000000
0aaaaa

#1050000
1aaaaa
b1010100100 aaaag

#1100000
0aaaaa

#1150000
1aaaaa

#1200000
0aaaaa

#1250000
1aaaaa

#1300000
0aaaaa

#1350000
1aaaaa
b1010101110 aaaag

#1400000
0aaaaa

#1450000
1aaaaa

#1500000
0aaaaa

#1550000
1aaaaa

#1600000
0aaaaa

#1650000
1aaaaa
b1010101111 aaaag

#1700000
0aaaaa

#1750000
1aaaaa

#1800000
0aaaaa

#1850000
1aaaaa

#1900000
0aaaaa

#1950000
1aaaaa

#2000000
0aaaaa

#2050000
1aaaaa

#2100000
0aaaaa

#2150000
1aaaaa

#2200000
0aaaaa

#2250000
1aaaaa
0aaaad
1aaaae

#2300000
0aaaaa

#2350000
1aaaaa
0aaaae

#2400000
0aaaaa

#2450000
1aaaaa
b0 aaaag

#2470000
1aaaac
b10000000 aaaaf

#2500000
0aaaaa

#2550000
1aaaaa

#2570000
0aaaac

#2600000
0aaaaa

#2650000
1aaaaa
1aaaad
b100000000 aaaag

#2700000
0aaaaa

#2750000
1aaaaa

#2800000
0aaaaa

#2850000
1aaaaa

#2900000
0aaaaa

#2950000
1aaaaa
b101111110 aaaag

#3000000
0aaaaa

#3050000
1aaaaa

#3100000
0aaaaa

#3150000
1aaaaa

#3200000
0aaaaa

#3250000
1aaaaa
b110011101 aaaag

#3300000
0aaaaa

#3350000
1aaaaa

#3400000
0aaaaa

#3450000
1aaaaa

#3500000
0aaaaa

#3550000
1aaaaa
b110100001 aaaag

#3600000
0aaaaa

#3650000
1aaaaa

#3700000
0aaaaa

#3750000
1aaaaa

#3800000
0aaaaa

#3850000
1aaaaa

#3900000
0aaaaa

#3950000
1aaaaa

#4000000
0aaaaa

#4050000
1aaaaa

#4100000
0aaaaa

#4150000
1aaaaa

#4200000
0aaaaa

#4250000
1aaaaa

#4300000
0aaaaa

#4350000
1aaaaa

#4400000
0aaaaa

#4450000
1aaaaa

#4500000
0aaaaa

#4550000
1aaaaa

#4600000
0aaaaa

#4650000
1aaaaa

#4700000
0aaaaa

#4750000
1aaaaa
0aaaad
1aaaae

#4800000
0aaaaa

#4850000
1aaaaa
0aaaae

#4900000
0aaaaa

#4950000
1aaaaa
b0 aaaag

#4970000
1aaaac
b0 aaaaf

#5000000
0aaaaa

#5050000
1aaaaa

#5070000
0aaaac

#7470000
1aaaac
b1 aaaaf

#7570000
0aaaac

