Taylor Series Expansion/Hyperbolic.vcd
$date
     Apr 30, 2024       20:48:40
$end

$version
 SystemC 2.3.1-Accellera --- Mar  5 2024 15:11:05
$end

$timescale
     1 ps
$end

$scope module SystemC $end
$var real    1  aaaaa  inHSU       $end
$var wire    1  aaaab  clk       $end
$var wire    1  aaaac  rst       $end
$var wire    1  aaaad  start HSU       $end
$var wire    1  aaaae  ready HSU       $end
$var real    1  aaaaf  outHSU       $end
$upscope $end
$enddefinitions  $end

$comment
All initial values are dumped below at time 0 sec = 0 timescale units.
$end

$dumpvars
r5 aaaaa
xaaaab
xaaaac
0aaaad
xaaaae
r0 aaaaf
$end

#7000
0aaaac

#17000
0aaaab

#18000
1aaaac
0aaaae

#34000
1aaaab

#51000
0aaaab

#60000
1aaaad

#68000
1aaaab

#76000
0aaaac

#85000
0aaaab

#102000
1aaaab

#119000
0aaaab

#120000
0aaaad

#136000
1aaaab
1aaaae

#153000
0aaaab

#170000
1aaaab

#187000
0aaaab

#190000
1aaaad

#204000
1aaaab
0aaaae

#221000
0aaaab

#238000
1aaaab

#250000
0aaaad

#255000
0aaaab

#272000
1aaaab

#289000
0aaaab

#306000
1aaaab

#320000
1aaaad

#323000
0aaaab

#340000
1aaaab

#357000
0aaaab

#374000
1aaaab

#380000
0aaaad

#391000
0aaaab

#408000
1aaaab

#425000
0aaaab

#442000
1aaaab

#450000
1aaaad

#459000
0aaaab

#476000
1aaaab

#493000
0aaaab

#510000
1aaaab
0aaaad

#527000
0aaaab

#544000
1aaaab

#561000
0aaaab

#578000
1aaaab

#580000
1aaaad

#595000
0aaaab

#612000
1aaaab

#629000
0aaaab

#640000
0aaaad

#646000
1aaaab

#663000
0aaaab

#680000
1aaaab

#697000
0aaaab

#710000
1aaaad

#714000
1aaaab

#731000
0aaaab

#748000
1aaaab

#765000
0aaaab

#770000
0aaaad

#782000
1aaaab

#799000
0aaaab

#816000
1aaaab

#833000
0aaaab

#840000
1aaaad

#850000
1aaaab

#867000
0aaaab

#884000
1aaaab

#900000
0aaaad

#901000
0aaaab

#918000
1aaaab

#935000
0aaaab

#952000
1aaaab
r1 aaaaf

#969000
0aaaab

#970000
1aaaad

#986000
1aaaab

#1003000
0aaaab

#1020000
1aaaab

#1030000
0aaaad

#1037000
0aaaab

#1054000
1aaaab
1aaaae
r0 aaaaf

#1071000
0aaaab

#1088000
1aaaab

#1100000
1aaaad

#1105000
0aaaab

#1122000
1aaaab
0aaaae

#1139000
0aaaab

#1156000
1aaaab

#1160000
0aaaad

#1173000
0aaaab

#1190000
1aaaab

#1207000
0aaaab

#1224000
1aaaab

#1230000
1aaaad

#1241000
0aaaab

#1258000
1aaaab

#1275000
0aaaab

#1290000
0aaaad

#1292000
1aaaab

#1309000
0aaaab

#1326000
1aaaab

#1343000
0aaaab

#1360000
1aaaab
1aaaad

#1377000
0aaaab

#1394000
1aaaab

#1411000
0aaaab

#1420000
0aaaad

#1428000
1aaaab

#1445000
0aaaab

#1462000
1aaaab

#1479000
0aaaab

#1490000
1aaaad

#1496000
1aaaab

#1513000
0aaaab

#1530000
1aaaab

#1547000
0aaaab

#1550000
0aaaad

#1564000
1aaaab

#1581000
0aaaab

#1598000
1aaaab

#1615000
0aaaab

#1620000
1aaaad

#1632000
1aaaab

#1649000
0aaaab

#1666000
1aaaab

#1680000
0aaaad

#1683000
0aaaab

#1700000
1aaaab

#1717000
0aaaab

#1734000
1aaaab

#1750000
1aaaad

#1751000
0aaaab

#1768000
1aaaab

#1785000
0aaaab

#1802000
1aaaab

#1810000
0aaaad

#1819000
0aaaab

#1836000
1aaaab

#1853000
0aaaab

#1870000
1aaaab
r1 aaaaf

#1880000
1aaaad

#1887000
0aaaab

#1904000
1aaaab

#1921000
0aaaab

#1938000
1aaaab

#1940000
0aaaad

#1955000
0aaaab

#1972000
1aaaab
1aaaae
r0 aaaaf

