3_Serial Adding/serialAdding1.vcd
$date
     May 01, 2018       10:19:19
$end

$version
 SystemC 2.3.1-Accellera --- Sep 22 2015 07:13:37
$end

$timescale
     1 ps
$end

$scope module SystemC $end
$var wire    1  aaaaa  aInput       $end
$var wire    1  aaaab  bInput       $end
$var wire    1  aaaac  reset       $end
$var wire    1  aaaad  clock       $end
$var wire    1  aaaae  serialSum       $end
$var wire    1  aaaaf  o2_fulladder       $end
$var wire    1  aaaag  o1_fulladder       $end
$var wire    1  aaaah  i3_fulladder       $end
$var wire    1  aaaai  i2_fulladder       $end
$var wire    1  aaaaj  i1_fulladder       $end
$upscope $end
$enddefinitions  $end

$comment
All initial values are dumped below at time 0 sec = 0 timescale units.
$end

$dumpvars
xaaaaa
xaaaab
xaaaac
xaaaad
xaaaae
xaaaaf
xaaaag
xaaaah
xaaaai
xaaaaj
$end

#300
0aaaae
0aaaaf

#400
0aaaag

#600
1aaaae
1aaaaf

#7000
0aaaaa
0aaaaj

#11000
0aaaab
0aaaai

#17000
0aaaad

#34000
1aaaad

#34600
0aaaah

#34900
0aaaae
0aaaaf

#37000
0aaaac

#48000
1aaaab
1aaaai

#48600
1aaaae
1aaaaf

#51000
0aaaad

#66000
1aaaaa
1aaaaj

#66400
1aaaag

#66600
0aaaae
0aaaaf

#68000
1aaaad

#68600
1aaaah

#68900
1aaaae
1aaaaf

#85000
0aaaad

#96000
1aaaac

#96600
0aaaah

#96900
0aaaae
0aaaaf

#102000
1aaaad

#119000
0aaaad

#136000
1aaaad

#149000
0aaaaa
0aaaab
0aaaai
0aaaaj

#149400
0aaaag

#153000
0aaaad

#155000
0aaaac

#170000
1aaaad

#187000
0aaaad

#204000
1aaaad

#221000
0aaaad

#238000
1aaaad

#255000
0aaaad

#256000
1aaaaa
1aaaaj

#256600
1aaaae
1aaaaf

#272000
1aaaad

#279000
0aaaaa
0aaaaj

#279600
0aaaae
0aaaaf

#289000
0aaaad

#306000
1aaaad

#323000
0aaaad

#338000
1aaaaa
1aaaaj

#338600
1aaaae
1aaaaf

#340000
1aaaad

#346000
1aaaab
1aaaai

#346400
1aaaag

#346600
0aaaae
0aaaaf

#357000
0aaaad

#374000
1aaaad

#374600
1aaaah

#374900
1aaaae
1aaaaf

#385000
0aaaab
0aaaai

#385400
0aaaag

#385600
0aaaae
0aaaaf

#391000
0aaaad

#408000
1aaaad

#408600
0aaaah

#408900
1aaaae
1aaaaf

#421000
0aaaaa
0aaaaj

#421600
0aaaae
0aaaaf

#422000
1aaaab
1aaaai

#422600
1aaaae
1aaaaf

#425000
0aaaad

#442000
1aaaad

#459000
0aaaad

#476000
1aaaad

#493000
0aaaad

#510000
1aaaad

#523000
0aaaab
0aaaai

#523600
0aaaae
0aaaaf

#527000
0aaaad

#528000
1aaaaa
1aaaaj

#528600
1aaaae
1aaaaf

#544000
1aaaad

#551000
0aaaaa
0aaaaj

#551600
0aaaae
0aaaaf

#561000
0aaaad

#578000
1aaaad

#595000
0aaaad

#610000
1aaaaa
1aaaaj

#610600
1aaaae
1aaaaf

#612000
1aaaad

#629000
0aaaad

#646000
1aaaad

#663000
0aaaad

#680000
1aaaad

#693000
0aaaaa
0aaaaj

#693600
0aaaae
0aaaaf

#697000
0aaaad

#714000
1aaaad

#720000
1aaaab
1aaaai

#720600
1aaaae
1aaaaf

#731000
0aaaad

#748000
1aaaad

#759000
0aaaab
0aaaai

#759600
0aaaae
0aaaaf

#765000
0aaaad

#782000
1aaaad

#796000
1aaaab
1aaaai

#796600
1aaaae
1aaaaf

#799000
0aaaad

#800000
1aaaaa
1aaaaj

#800400
1aaaag

#800600
0aaaae
0aaaaf

#816000
1aaaad

#816600
1aaaah

#816900
1aaaae
1aaaaf

#823000
0aaaaa
0aaaaj

#823400
0aaaag

#823600
0aaaae
0aaaaf

#833000
0aaaad

#850000
1aaaad

#850600
0aaaah

#850900
1aaaae
1aaaaf

#867000
0aaaad

#882000
1aaaaa
1aaaaj

#882400
1aaaag

#882600
0aaaae
0aaaaf

#884000
1aaaad

#884600
1aaaah

#884900
1aaaae
1aaaaf

#897000
0aaaab
0aaaai

#897400
0aaaag

#897600
0aaaae
0aaaaf

#901000
0aaaad

#918000
1aaaad

#918600
0aaaah

#918900
1aaaae
1aaaaf

#935000
0aaaad

#952000
1aaaad

#965000
0aaaaa
0aaaaj

#965600
0aaaae
0aaaaf

#969000
0aaaad

#986000
1aaaad

#1003000
0aaaad

#1020000
1aaaad

#1037000
0aaaad

#1054000
1aaaad

#1071000
0aaaad

#1072000
1aaaaa
1aaaaj

#1072600
1aaaae
1aaaaf

#1088000
1aaaad

#1094000
1aaaab
1aaaai

#1094400
1aaaag

#1094600
0aaaae
0aaaaf

#1095000
0aaaaa
0aaaaj

#1095400
0aaaag

#1095600
1aaaae
1aaaaf

#1105000
0aaaad

#1122000
1aaaad

#1133000
0aaaab
0aaaai

#1133600
0aaaae
0aaaaf

#1139000
0aaaad

#1154000
1aaaaa
1aaaaj

#1154600
1aaaae
1aaaaf

#1156000
1aaaad

#1170000
1aaaab
1aaaai

#1170400
1aaaag

#1170600
0aaaae
0aaaaf

#1173000
0aaaad

#1190000
1aaaad

#1190600
1aaaah

#1190900
1aaaae
1aaaaf

#1207000
0aaaad

#1224000
1aaaad

#1237000
0aaaaa
0aaaaj

#1237400
0aaaag

#1237600
0aaaae
0aaaaf

#1241000
0aaaad

#1258000
1aaaad

#1258600
0aaaah

#1258900
1aaaae
1aaaaf

#1271000
0aaaab
0aaaai

#1271600
0aaaae
0aaaaf

#1275000
0aaaad

#1292000
1aaaad

#1309000
0aaaad

#1326000
1aaaad

#1343000
0aaaad

#1344000
1aaaaa
1aaaaj

#1344600
1aaaae
1aaaaf

#1360000
1aaaad

#1367000
0aaaaa
0aaaaj

#1367600
0aaaae
0aaaaf

#1377000
0aaaad

#1394000
1aaaad

#1411000
0aaaad

#1426000
1aaaaa
1aaaaj

#1426600
1aaaae
1aaaaf

#1428000
1aaaad

#1445000
0aaaad

#1462000
1aaaad

#1468000
1aaaab
1aaaai

#1468400
1aaaag

#1468600
0aaaae
0aaaaf

#1479000
0aaaad

#1496000
1aaaad

#1496600
1aaaah

#1496900
1aaaae
1aaaaf

#1507000
0aaaab
0aaaai

#1507400
0aaaag

#1507600
0aaaae
0aaaaf

#1509000
0aaaaa
0aaaaj

#1509400
1aaaag

#1509600
1aaaae
1aaaaf

#1513000
0aaaad

#1530000
1aaaad

#1544000
1aaaab
1aaaai

#1544400
0aaaag

#1544600
0aaaae
0aaaaf

#1547000
0aaaad

#1564000
1aaaad

#1564600
0aaaah

#1564900
1aaaae
1aaaaf

#1581000
0aaaad

#1598000
1aaaad

#1615000
0aaaad

#1616000
1aaaaa
1aaaaj

#1616400
1aaaag

#1616600
0aaaae
0aaaaf

#1632000
1aaaad

#1632600
1aaaah

#1632900
1aaaae
1aaaaf

#1639000
0aaaaa
0aaaaj

#1639400
0aaaag

#1639600
0aaaae
0aaaaf

#1645000
0aaaab
0aaaai

#1645400
1aaaag

#1645600
1aaaae
1aaaaf

#1649000
0aaaad

#1666000
1aaaad

#1683000
0aaaad

#1698000
1aaaaa
1aaaaj

#1698400
0aaaag

#1698600
0aaaae
0aaaaf

#1700000
1aaaad

#1700600
0aaaah

#1700900
1aaaae
1aaaaf

#1717000
0aaaad

#1734000
1aaaad

#1751000
0aaaad

#1768000
1aaaad

#1781000
0aaaaa
0aaaaj

#1781600
0aaaae
0aaaaf

#1785000
0aaaad

#1802000
1aaaad

#1819000
0aaaad

#1836000
1aaaad

#1842000
1aaaab
1aaaai

#1842600
1aaaae
1aaaaf

#1853000
0aaaad

#1870000
1aaaad

#1881000
0aaaab
0aaaai

#1881600
0aaaae
0aaaaf

#1887000
0aaaad

#1888000
1aaaaa
1aaaaj

#1888600
1aaaae
1aaaaf

#1904000
1aaaad

#1911000
0aaaaa
0aaaaj

#1911600
0aaaae
0aaaaf

#1918000
1aaaab
1aaaai

#1918600
1aaaae
1aaaaf

#1921000
0aaaad

#1938000
1aaaad

#1955000
0aaaad

#1970000
1aaaaa
1aaaaj

#1970400
1aaaag

#1970600
0aaaae
0aaaaf

#1972000
1aaaad

#1972600
1aaaah

#1972900
1aaaae
1aaaaf

#1989000
0aaaad

#2006000
1aaaad

#2019000
0aaaab
0aaaai

#2019400
0aaaag

#2019600
0aaaae
0aaaaf

#2023000
0aaaad

#2040000
1aaaad

#2040600
0aaaah

#2040900
1aaaae
1aaaaf

#2053000
0aaaaa
0aaaaj

#2053600
0aaaae
0aaaaf

#2057000
0aaaad

#2074000
1aaaad

#2091000
0aaaad

#2108000
1aaaad

#2125000
0aaaad

#2142000
1aaaad

#2159000
0aaaad

#2160000
1aaaaa
1aaaaj

#2160600
1aaaae
1aaaaf

#2176000
1aaaad

#2183000
0aaaaa
0aaaaj

#2183600
0aaaae
0aaaaf

#2193000
0aaaad

#2210000
1aaaad

#2216000
1aaaab
1aaaai

#2216600
1aaaae
1aaaaf

#2227000
0aaaad

#2242000
1aaaaa
1aaaaj

#2242400
1aaaag

#2242600
0aaaae
0aaaaf

#2244000
1aaaad

#2244600
1aaaah

#2244900
1aaaae
1aaaaf

#2255000
0aaaab
0aaaai

#2255400
0aaaag

#2255600
0aaaae
0aaaaf

#2261000
0aaaad

#2278000
1aaaad

#2278600
0aaaah

#2278900
1aaaae
1aaaaf

#2292000
1aaaab
1aaaai

#2292400
1aaaag

#2292600
0aaaae
0aaaaf

#2295000
0aaaad

#2312000
1aaaad

#2312600
1aaaah

#2312900
1aaaae
1aaaaf

#2325000
0aaaaa
0aaaaj

#2325400
0aaaag

#2325600
0aaaae
0aaaaf

#2329000
0aaaad

#2346000
1aaaad

#2346600
0aaaah

#2346900
1aaaae
1aaaaf

#2363000
0aaaad

#2380000
1aaaad

#2393000
0aaaab
0aaaai

#2393600
0aaaae
0aaaaf

#2397000
0aaaad

#2414000
1aaaad

#2431000
0aaaad

#2432000
1aaaaa
1aaaaj

#2432600
1aaaae
1aaaaf

#2448000
1aaaad

#2455000
0aaaaa
0aaaaj

#2455600
0aaaae
0aaaaf

#2465000
0aaaad

#2482000
1aaaad

#2499000
0aaaad

#2514000
1aaaaa
1aaaaj

#2514600
1aaaae
1aaaaf

#2516000
1aaaad

#2533000
0aaaad

#2550000
1aaaad

#2567000
0aaaad

#2584000
1aaaad

#2590000
1aaaab
1aaaai

#2590400
1aaaag

#2590600
0aaaae
0aaaaf

#2597000
0aaaaa
0aaaaj

#2597400
0aaaag

#2597600
1aaaae
1aaaaf

#2601000
0aaaad

#2618000
1aaaad

#2629000
0aaaab
0aaaai

#2629600
0aaaae
0aaaaf

#2635000
0aaaad

#2652000
1aaaad

#2666000
1aaaab
1aaaai

#2666600
1aaaae
1aaaaf

#2669000
0aaaad

#2686000
1aaaad

#2703000
0aaaad

#2704000
1aaaaa
1aaaaj

#2704400
1aaaag

#2704600
0aaaae
0aaaaf

#2720000
1aaaad

#2720600
1aaaah

#2720900
1aaaae
1aaaaf

#2727000
0aaaaa
0aaaaj

#2727400
0aaaag

#2727600
0aaaae
0aaaaf

#2737000
0aaaad

#2754000
1aaaad

#2754600
0aaaah

#2754900
1aaaae
1aaaaf

#2767000
0aaaab
0aaaai

#2767600
0aaaae
0aaaaf

#2771000
0aaaad

#2786000
1aaaaa
1aaaaj

#2786600
1aaaae
1aaaaf

#2788000
1aaaad

#2805000
0aaaad

#2822000
1aaaad

#2839000
0aaaad

#2856000
1aaaad

#2869000
0aaaaa
0aaaaj

#2869600
0aaaae
0aaaaf

#2873000
0aaaad

#2890000
1aaaad

#2907000
0aaaad

#2924000
1aaaad

#2941000
0aaaad

#2958000
1aaaad

#2964000
1aaaab
1aaaai

#2964600
1aaaae
1aaaaf

#2975000
0aaaad

#2976000
1aaaaa
1aaaaj

#2976400
1aaaag

#2976600
0aaaae
0aaaaf

#2992000
1aaaad

#2992600
1aaaah

#2992900
1aaaae
1aaaaf

#2999000
0aaaaa
0aaaaj

#2999400
0aaaag

#2999600
0aaaae
0aaaaf

#3003000
0aaaab
0aaaai

#3003400
1aaaag

#3003600
1aaaae
1aaaaf

#3009000
0aaaad

#3026000
1aaaad

#3040000
1aaaab
1aaaai

#3040400
0aaaag

#3040600
0aaaae
0aaaaf

#3043000
0aaaad

#3058000
1aaaaa
1aaaaj

#3058400
1aaaag

#3058600
1aaaae
1aaaaf

#3060000
1aaaad

#3077000
0aaaad

#3094000
1aaaad

#3111000
0aaaad

#3128000
1aaaad

#3141000
0aaaaa
0aaaab
0aaaai
0aaaaj

#3141400
0aaaag

#3145000
0aaaad

#3162000
1aaaad

#3162600
0aaaah

#3162900
0aaaae
0aaaaf

#3179000
0aaaad

#3196000
1aaaad

#3213000
0aaaad

#3230000
1aaaad

#3247000
0aaaad

#3248000
1aaaaa
1aaaaj

#3248600
1aaaae
1aaaaf

#3264000
1aaaad

#3271000
0aaaaa
0aaaaj

#3271600
0aaaae
0aaaaf

#3281000
0aaaad

#3298000
1aaaad

#3315000
0aaaad

#3330000
1aaaaa
1aaaaj

#3330600
1aaaae
1aaaaf

#3332000
1aaaad

#3338000
1aaaab
1aaaai

#3338400
1aaaag

#3338600
0aaaae
0aaaaf

#3349000
0aaaad

#3366000
1aaaad

#3366600
1aaaah

#3366900
1aaaae
1aaaaf

#3377000
0aaaab
0aaaai

#3377400
0aaaag

#3377600
0aaaae
0aaaaf

#3383000
0aaaad

#3400000
1aaaad

#3400600
0aaaah

#3400900
1aaaae
1aaaaf

#3413000
0aaaaa
0aaaaj

#3413600
0aaaae
0aaaaf

#3414000
1aaaab
1aaaai

#3414600
1aaaae
1aaaaf

#3417000
0aaaad

#3434000
1aaaad

#3451000
0aaaad

#3468000
1aaaad

#3485000
0aaaad

#3502000
1aaaad

#3515000
0aaaab
0aaaai

#3515600
0aaaae
0aaaaf

#3519000
0aaaad

#3520000
1aaaaa
1aaaaj

#3520600
1aaaae
1aaaaf

#3536000
1aaaad

#3543000
0aaaaa
0aaaaj

#3543600
0aaaae
0aaaaf

#3553000
0aaaad

#3570000
1aaaad

#3587000
0aaaad

#3602000
1aaaaa
1aaaaj

#3602600
1aaaae
1aaaaf

#3604000
1aaaad

#3621000
0aaaad

#3638000
1aaaad

#3655000
0aaaad

#3672000
1aaaad

#3685000
0aaaaa
0aaaaj

#3685600
0aaaae
0aaaaf

#3689000
0aaaad

#3706000
1aaaad

#3712000
1aaaab
1aaaai

#3712600
1aaaae
1aaaaf

#3723000
0aaaad

#3740000
1aaaad

#3751000
0aaaab
0aaaai

#3751600
0aaaae
0aaaaf

#3757000
0aaaad

#3774000
1aaaad

#3788000
1aaaab
1aaaai

#3788600
1aaaae
1aaaaf

#3791000
0aaaad

#3792000
1aaaaa
1aaaaj

#3792400
1aaaag

#3792600
0aaaae
0aaaaf

#3808000
1aaaad

#3808600
1aaaah

#3808900
1aaaae
1aaaaf

#3815000
0aaaaa
0aaaaj

#3815400
0aaaag

#3815600
0aaaae
0aaaaf

#3825000
0aaaad

#3842000
1aaaad

#3842600
0aaaah

#3842900
1aaaae
1aaaaf

#3859000
0aaaad

#3874000
1aaaaa
1aaaaj

#3874400
1aaaag

#3874600
0aaaae
0aaaaf

#3876000
1aaaad

#3876600
1aaaah

#3876900
1aaaae
1aaaaf

#3889000
0aaaab
0aaaai

#3889400
0aaaag

#3889600
0aaaae
0aaaaf

#3893000
0aaaad

#3910000
1aaaad

#3910600
0aaaah

#3910900
1aaaae
1aaaaf

#3927000
0aaaad

#3944000
1aaaad

#3957000
0aaaaa
0aaaaj

#3957600
0aaaae
0aaaaf

